%YAML 1.1
%TAG !u! tag:unity3d.com,2011:
--- !u!74 &7400000
AnimationClip:
  m_ObjectHideFlags: 0
  m_CorrespondingSourceObject: {fileID: 0}
  m_PrefabInstance: {fileID: 0}
  m_PrefabAsset: {fileID: 0}
  m_Name: LevelComplete
  serializedVersion: 7
  m_Legacy: 0
  m_Compressed: 0
  m_UseHighQualityCurve: 1
  m_RotationCurves: []
  m_CompressedRotationCurves: []
  m_EulerCurves: []
  m_PositionCurves: []
  m_ScaleCurves: []
  m_FloatCurves: []
  m_PPtrCurves:
  - serializedVersion: 2
    curve:
    - time: 0
      value: {fileID: 21300000, guid: 33d73735aa7b5534a928f3124897d727, type: 3}
    - time: 0.016666668
      value: {fileID: 21300000, guid: c47bdce0acd6e534fa5c42090e019652, type: 3}
    - time: 0.033333335
      value: {fileID: 21300000, guid: 7f5fc66bee85acd43970471485cb9849, type: 3}
    - time: 0.05
      value: {fileID: 21300000, guid: 0c67b28c7f0d4fb49ad2b0a50370d155, type: 3}
    - time: 0.06666667
      value: {fileID: 21300000, guid: 269de06eec5646145aa37b95e1af50a6, type: 3}
    - time: 0.083333336
      value: {fileID: 21300000, guid: a83a51a3ae7594d469f891a9a958de52, type: 3}
    - time: 0.1
      value: {fileID: 21300000, guid: 7562ad2d11231054ea4023648479637e, type: 3}
    - time: 0.11666667
      value: {fileID: 21300000, guid: e4cd50634972f0e4fb501a236972be2e, type: 3}
    - time: 0.13333334
      value: {fileID: 21300000, guid: e344f2744a2af6849961bf05c6a4fd55, type: 3}
    - time: 0.15
      value: {fileID: 21300000, guid: b67e0dfecf886224e816a9672dc8aebb, type: 3}
    - time: 0.16666667
      value: {fileID: 21300000, guid: d508fab3217541244abbe8c6a797b9ec, type: 3}
    - time: 0.18333334
      value: {fileID: 21300000, guid: ad3a45ddaecfb274eb267461ca94c86c, type: 3}
    - time: 0.2
      value: {fileID: 21300000, guid: 27e914c739c3e7746953e871b7373d80, type: 3}
    attribute: m_Sprite
    path: 
    classID: 114
    script: {fileID: 11500000, guid: fe87c0e1cc204ed48ad3b37840f39efc, type: 3}
    flags: 2
  m_SampleRate: 60
  m_WrapMode: 0
  m_Bounds:
    m_Center: {x: 0, y: 0, z: 0}
    m_Extent: {x: 0, y: 0, z: 0}
  m_ClipBindingConstant:
    genericBindings:
    - serializedVersion: 2
      path: 0
      attribute: 2015549526
      script: {fileID: 11500000, guid: fe87c0e1cc204ed48ad3b37840f39efc, type: 3}
      typeID: 114
      customType: 0
      isPPtrCurve: 1
      isIntCurve: 0
      isSerializeReferenceCurve: 0
    pptrCurveMapping:
    - {fileID: 21300000, guid: 33d73735aa7b5534a928f3124897d727, type: 3}
    - {fileID: 21300000, guid: c47bdce0acd6e534fa5c42090e019652, type: 3}
    - {fileID: 21300000, guid: 7f5fc66bee85acd43970471485cb9849, type: 3}
    - {fileID: 21300000, guid: 0c67b28c7f0d4fb49ad2b0a50370d155, type: 3}
    - {fileID: 21300000, guid: 269de06eec5646145aa37b95e1af50a6, type: 3}
    - {fileID: 21300000, guid: a83a51a3ae7594d469f891a9a958de52, type: 3}
    - {fileID: 21300000, guid: 7562ad2d11231054ea4023648479637e, type: 3}
    - {fileID: 21300000, guid: e4cd50634972f0e4fb501a236972be2e, type: 3}
    - {fileID: 21300000, guid: e344f2744a2af6849961bf05c6a4fd55, type: 3}
    - {fileID: 21300000, guid: b67e0dfecf886224e816a9672dc8aebb, type: 3}
    - {fileID: 21300000, guid: d508fab3217541244abbe8c6a797b9ec, type: 3}
    - {fileID: 21300000, guid: ad3a45ddaecfb274eb267461ca94c86c, type: 3}
    - {fileID: 21300000, guid: 27e914c739c3e7746953e871b7373d80, type: 3}
  m_AnimationClipSettings:
    serializedVersion: 2
    m_AdditiveReferencePoseClip: {fileID: 0}
    m_AdditiveReferencePoseTime: 0
    m_StartTime: 0
    m_StopTime: 0.21666667
    m_OrientationOffsetY: 0
    m_Level: 0
    m_CycleOffset: 0
    m_HasAdditiveReferencePose: 0
    m_LoopTime: 1
    m_LoopBlend: 0
    m_LoopBlendOrientation: 0
    m_LoopBlendPositionY: 0
    m_LoopBlendPositionXZ: 0
    m_KeepOriginalOrientation: 0
    m_KeepOriginalPositionY: 1
    m_KeepOriginalPositionXZ: 0
    m_HeightFromFeet: 0
    m_Mirror: 0
  m_EditorCurves: []
  m_EulerEditorCurves: []
  m_HasGenericRootTransform: 0
  m_HasMotionFloatCurves: 0
  m_Events: []
