%YAML 1.1
%TAG !u! tag:unity3d.com,2011:
--- !u!114 &11400000
MonoBehaviour:
  m_ObjectHideFlags: 0
  m_CorrespondingSourceObject: {fileID: 0}
  m_PrefabInstance: {fileID: 0}
  m_PrefabAsset: {fileID: 0}
  m_GameObject: {fileID: 0}
  m_Enabled: 1
  m_EditorHideFlags: 0
  m_Script: {fileID: 11500000, guid: 1277e055de61e354f8808807f9c57c20, type: 3}
  m_Name: Oleada4
  m_EditorClassIdentifier: 
  PorcentajeEneMelee: 0
  NumberOleada: 4
  NumberMaxEnemies: 2
  NumberOfSOEnemyMeleeInList: 0
  NumberOfSOEnemyRangeInList: 0
